…
Let’s combine home/away and season to see how they jointly affect the
number of goals scored in a match.

``` r
df_multiple <- df |>
  select(season, hgoal, vgoal) |>
  pivot_longer(c(hgoal, vgoal)) |>
  mutate(hometeam = as.integer(name == "hgoal")) |>
  rename(score = value)

# let's take a look at the data
df_multiple
```

    # A tibble: 407,912 × 4
       season name  score hometeam
        <dbl> <chr> <dbl>    <int>
     1   1888 hgoal     3        1
     2   1888 vgoal     6        0
     3   1888 hgoal     2        1
     4   1888 vgoal     1        0
     5   1888 hgoal     5        1
     6   1888 vgoal     2        0
     7   1888 hgoal     0        1
     8   1888 vgoal     2        0
     9   1888 hgoal     1        1
    10   1888 vgoal     1        0
    # ℹ 407,902 more rows
…
