# Lecture 10: String manipulation
Romain Ferrali

``` r
suppressPackageStartupMessages(library(tidyverse))
df <- read_csv("./data/lecture-10-tweets.csv", show_col_types = FALSE)
```

``` r
df # a dataset about tweets, with information about the user who posted the tweet the content of the tweet
```

    # A tibble: 498 × 4
       date                         topic   handle       text                       
       <chr>                        <chr>   <chr>        <chr>                      
     1 Mon May 11 03:17:40 UTC 2009 kindle2 tpryan       @stellargirl I loooooooovv…
     2 Mon May 11 03:18:03 UTC 2009 kindle2 vcu451       Reading my kindle2...  Lov…
     3 Mon May 11 03:18:54 UTC 2009 kindle2 chadfu       Ok, first assesment of the…
     4 Mon May 11 03:19:04 UTC 2009 kindle2 SIX15        @kenburbary You'll love yo…
     5 Mon May 11 03:21:41 UTC 2009 kindle2 yamarama     @mikefish  Fair enough. Bu…
     6 Mon May 11 03:22:00 UTC 2009 kindle2 GeorgeVHulme @richardebaker no. it is t…
     7 Mon May 11 03:22:30 UTC 2009 aig     Seth937      Fuck this economy. I hate …
     8 Mon May 11 03:26:10 UTC 2009 jquery  dcostalis    Jquery is my new best frie…
     9 Mon May 11 03:27:15 UTC 2009 twitter PJ_King      Loves twitter              
    10 Mon May 11 03:29:20 UTC 2009 obama   mandanicole  how can you not love Obama…
    # ℹ 488 more rows
…
  filter(
    grepl(
      "@", # look for the "@" symbol,
      text, # in column "text"
      fixed = TRUE # and disable regular expressions
      # (i.e., treat "@" as a literal character, not a special character in regular expressions)
    )
    # grepl() returns a logical vector:
    # if the "@" symbol is found in the text,
    # it returns TRUE, otherwise it returns FALSE.
    # The filter() function keeps only the rows where the condition is TRUE.
  )
```

    # A tibble: 114 × 4
       date                         topic   handle         text                     
       <chr>                        <chr>   <chr>          <chr>                    
     1 Mon May 11 03:17:40 UTC 2009 kindle2 tpryan         @stellargirl I loooooooo…
     2 Mon May 11 03:19:04 UTC 2009 kindle2 SIX15          @kenburbary You'll love …
     3 Mon May 11 03:21:41 UTC 2009 kindle2 yamarama       @mikefish  Fair enough. …
     4 Mon May 11 03:22:00 UTC 2009 kindle2 GeorgeVHulme   @richardebaker no. it is…
     5 Mon May 11 03:32:48 UTC 2009 obama   kylesellers    @Karoli I firmly believe…
     6 Mon May 11 05:06:22 UTC 2009 nike    vincentx24x    dear nike, stop with the…
     7 Mon May 11 05:21:37 UTC 2009 lebron  ursecretdezire @ludajuice Lebron is a B…
     8 Mon May 11 05:21:45 UTC 2009 lebron  Native_01      @Pmillzz lebron IS THE B…
     9 Mon May 11 05:22:03 UTC 2009 lebron  princezzcutz   @sketchbug Lebron is a h…
    10 Mon May 11 05:22:37 UTC 2009 lebron  emceet         @wordwhizkid Lebron is a…
    # ℹ 104 more rows
…
    # substr stands for "substring", and it takes three arguments:
    # the string, the starting position, and the ending position
    # substr(date, 1, 3) would extract characters 1 to 3 (so the first three characters)
    # now, we want to extract the last 4 characters
    # nchar() stands for "number of characters", and it returns the number of characters in a string
    # so nchar(date) - 3 returns the position of the fourth-to-last character,
    # and nchar(date) returns the position of the last character
    # this way, we extract the last 4 characters of the date string, which is the year
    year = substr(date, nchar(date) - 3, nchar(date)),
    # we convert the year to a numeric variable, so that we can do calculations with it
    year = as.numeric(year)
  )
```

    # A tibble: 498 × 5
       date                         topic   handle       text                   year
       <chr>                        <chr>   <chr>        <chr>                 <dbl>
     1 Mon May 11 03:17:40 UTC 2009 kindle2 tpryan       @stellargirl I loooo…  2009
     2 Mon May 11 03:18:03 UTC 2009 kindle2 vcu451       Reading my kindle2..…  2009
     3 Mon May 11 03:18:54 UTC 2009 kindle2 chadfu       Ok, first assesment …  2009
     4 Mon May 11 03:19:04 UTC 2009 kindle2 SIX15        @kenburbary You'll l…  2009
     5 Mon May 11 03:21:41 UTC 2009 kindle2 yamarama     @mikefish  Fair enou…  2009
     6 Mon May 11 03:22:00 UTC 2009 kindle2 GeorgeVHulme @richardebaker no. i…  2009
     7 Mon May 11 03:22:30 UTC 2009 aig     Seth937      Fuck this economy. I…  2009
     8 Mon May 11 03:26:10 UTC 2009 jquery  dcostalis    Jquery is my new bes…  2009
     9 Mon May 11 03:27:15 UTC 2009 twitter PJ_King      Loves twitter          2009
    10 Mon May 11 03:29:20 UTC 2009 obama   mandanicole  how can you not love…  2009
    # ℹ 488 more rows
…
